{
	"title" : "hey world, i'm",
	"highlightedText" : "Kiem",
	"description" : "Hi, I'm a Web Developer with extensive experience in Website Development. For the past 9 years, I have been working in programming and system management.",
	"displayPicture" : "avatar.jpg",
	"phone": "(+84)906.282.404",
	"email": "kiemhd@outlook.com"
}